{
  "data": [
    {
      "id": 1113442572,
      "strava_id": 1113442572,
      "name": "Afternoon Ride",
      "sport_type": "Ride",
      "date": "2016-12-26T16:27:45Z",
      "distance_mi": 5.22,
      "duration": "34:25",
      "duration_s": 2065,
      "pace": "6:36/mi",
      "elevation_ft": 326.77,
      "heartrate_avg": null,
      "heartrate_max": null,
      "cadence": null,
      "calories": 136.4,
      "suffer_score": null,
      "city": null,
      "state": null,
      "polyline": "_qzgExhcjUcDt@@rG`KZdKzbAxb@xw@vJeDzPxDhNc@r@eHiEwYhD}FcEnGbFnZw@hGiMTsPeEoJ~Bic@qx@kOspAmDb@cBbDvD_A",
      "is_race": false,
      "workout_type": "default",
      "strava_url": "https://www.strava.com/activities/1113442572"
    },
    {
      "id": 1113442567,
      "strava_id": 1113442567,
      "name": "Afternoon Ride",
      "sport_type": "Ride",
      "date": "2016-12-21T16:13:00Z",
      "distance_mi": 3.78,
      "duration": "33:13",
      "duration_s": 1993,
      "pace": "8:48/mi",
      "elevation_ft": 526.9,
      "heartrate_avg": null,
      "heartrate_max": null,
      "cadence": null,
      "calories": 175,
      "suffer_score": null,
      "city": null,
      "state": null,
      "polyline": "_czgEdbljUqB{JzAuSyB}NcOoSmMuLyCsGb@wAmEuXiU{g@kBsQqGaU|D}MfKlA~GsD|KwXnQmHzNwAgDo\\gEr@mAbDfCBl@cB",
      "is_race": false,
      "workout_type": "default",
      "strava_url": "https://www.strava.com/activities/1113442567"
    },
    {
      "id": 1113442575,
      "strava_id": 1113442575,
      "name": "Afternoon Ride",
      "sport_type": "Ride",
      "date": "2016-12-21T15:12:40Z",
      "distance_mi": 4.77,
      "duration": "35:54",
      "duration_s": 2154,
      "pace": "7:32/mi",
      "elevation_ft": 65.29,
      "heartrate_avg": null,
      "heartrate_max": null,
      "cadence": null,
      "calories": 64,
      "suffer_score": null,
      "city": null,
      "state": null,
      "polyline": "_pzgEphcjUqDp@MxGdK|@lKlbAbb@jw@aIxYmE~DmGbAiCK}BuCM_GrAiB}DaIuCnAqEsAjEpAmEbN`HuPvAVMdCvA`DsAx@_AzFdAtEkDa@wBvGnIje@kDrO~@zKwA~@aBdS~CzMtIjH",
      "is_race": false,
      "workout_type": "default",
      "strava_url": "https://www.strava.com/activities/1113442575"
    }
  ],
  "pagination": {
    "page": 1,
    "limit": 3,
    "total": 40,
    "total_pages": 14
  }
}
